I Know Nothing About College Basketball, But Heres The Bracket Prediction I Made Using Machine Learning - Sam Collins's Github Site
…
Now Here’s Where I Get Sad

I want to see how effective my model is at predicting games. I first want to test it against my training data. The outcome of this test shows that my model was overfit ):

Unfortunately this was something I caught AFTER I made my bracket and finalized it so we are just going to go with the overfit model on this one.

trainpredict <- log_fit %>% predict(new_data = log_train) %>%
  bind_cols(log_train)

trainpredict

## # A tibble: 38,377 x 20
##    .pred_class Season Team  Date       Opponent Outcome Rolling_Mean_Po…
##    <fct>       <chr>  <chr> <date>     <chr>    <fct>              <dbl>
##  1 L           2014-… Abil… 2014-11-19 Tulsa    L                   74.9
##  2 L           2014-… Abil… 2014-11-22 Duquesne L                   71.3
##  3 L           2014-… Abil… 2014-11-29 UC-Rive… L                   69.2
##  4 W           2014-… Abil… 2014-12-04 Sacrame… W                   68.3
##  5 L           2014-… Abil… 2014-12-06 Houston  L                   67.9
##  6 L           2014-… Abil… 2014-12-17 Loyola … L                   66.8
##  7 W           2014-… Abil… 2014-12-23 Arkansa… W                   70.9
##  8 L           2014-… Abil… 2014-12-28 Grand C… L                   70.8
##  9 W           2014-… Abil… 2015-01-04 Central… W                   71.8
## 10 W           2014-… Abil… 2015-01-10 Nicholl… W                   69.7
## # … with 38,367 more rows, and 13 more variables: Rolling_Mean_PPP <dbl>,
## #   TeamTotalRebounds <dbl>, TeamTurnovers <dbl>, TeamSRS <dbl>, TeamSOS <dbl>,
## #   WinQuality <dbl>, Opponent_Rolling_Mean_Possessions <dbl>,
## #   Opponent_Rolling_Mean_PPP <dbl>, OpponentTotalRebounds <dbl>,
## #   OpponentTurnovers <dbl>, OpponentSRS <dbl>, OpponentSOS <dbl>,
## #   OpponentWinQuality <dbl>
…
